{
    "dev": {
        "awscloudformation": {
            "AuthRoleName": "appsync-dev-20190831191919-authRole",
            "UnauthRoleArn": "arn:aws:iam::671220314431:role/appsync-dev-20190831191919-unauthRole",
            "AuthRoleArn": "arn:aws:iam::671220314431:role/appsync-dev-20190831191919-authRole",
            "Region": "us-east-1",
            "DeploymentBucketName": "appsync-dev-20190831191919-deployment",
            "UnauthRoleName": "appsync-dev-20190831191919-unauthRole",
            "StackName": "appsync-dev-20190831191919",
            "StackId": "arn:aws:cloudformation:us-east-1:671220314431:stack/appsync-dev-20190831191919/246cb450-cc4e-11e9-87b9-12ece74fd46e"
        },
        "categories": {
            "auth": {
                "appsync4bacb9af": {}
            }
        }
    }
}